Lucas Rosa - Homework 5
…
Q2b.

Summarize the mean value of pass for each posteam when all the following conditions hold: wp is greater than 20% and less than 75%; down is less than or equal to 2; and half_seconds_remaining is greater than 120.

filtered_data <- NFL2022_stuffs %>%
  filter(wp > 0.2 & wp < 0.75 & down <= 2 & half_seconds_remaining > 120)

summary_data <- filtered_data %>%
  group_by(posteam) %>%
  summarize(mean_pass = mean(pass, na.rm = TRUE))

print(summary_data)

# A tibble: 32 × 2
   posteam mean_pass
   <chr>       <dbl>
 1 ARI         0.553
 2 ATL         0.4  
 3 BAL         0.520
 4 BUF         0.604
 5 CAR         0.458
 6 CHI         0.420
 7 CIN         0.657
 8 CLE         0.491
 9 DAL         0.474
10 DEN         0.493
# ℹ 22 more rows
…
